Trial,Circle,Straight,V-shape,W-shape
1, 3.141592653589793, 2.9411764705882355,2.9197080291970803,3.2461191673947245
2, 3.141592653589793, 2.985074626865672, 2.857142857142857, 3.020954832084108
3, 3.141592653589793, 3.508771929824561, 3.053435114503817, 3.2869508550349096
4, 3.141592653589793, 3.389830508474576, 2.962962962962963, 2.9864296340031466
5, 3.141592653589793, 3.0303030303030303,3.361344537815126, 3.020954832084108
6, 3.141592653589793, 2.6315789473684212,3.0303030303030303,3.0562876371377232
7, 3.141592653589793, 3.3333333333333335,3.10077519379845,  3.328822840449367
8, 3.141592653589793, 3.225806451612903, 2.985074626865672, 3.507551583560743
9, 3.141592653589793, 2.9411764705882355,2.9197080291970803,3.0385185229683183
10,3.141592653589793,3.0303030303030303, 3.361344537815126, 3.1867389387228697
11,3.141592653589793,3.278688524590164,  3.053435114503817, 3.3717753932293593
12,3.141592653589793,3.125000000000000,  3.200000000000000, 3.0385185229683183
13,3.141592653589793,3.3333333333333335, 3.10077519379845,  2.9034732552808373
14,3.141592653589793,2.898550724637681,  3.278688524590164, 3.2062894843592065
15,3.141592653589793,3.225806451612903,  3.4782608695652173,3.4841679063370044
16,3.141592653589793,3.4482758620689653, 3.252032520325203, 3.1867389387228697
17,3.141592653589793,4.166666666666667,  3.076923076923077, 3.129492131440423
18,3.141592653589793,3.1746031746031744, 3.0303030303030303,3.604311627245177
19,3.141592653589793,3.076923076923077,  3.225806451612903, 3.020954832084108
20,3.141592653589793,2.9411764705882355, 3.053435114503817, 3.3936700386399394
